sdmTMB Sardine eggs Bay of biscay
…
See ?tidy.sdmTMB to extract these values as a data frame.

Confidence intervals of fixed effects

Hide/Show

fix_effects<- tidy(fit_m1, conf.int = TRUE)
fix_effects

# A tibble: 24 × 5
   term     estimate std.error conf.low conf.high
   <chr>       <dbl>     <dbl>    <dbl>     <dbl>
 1 Year2000   2.73        1.52   -0.247      5.70
 2 Year2001   1.07        1.52   -1.91       4.04
 3 Year2002   1.41        1.52   -1.56       4.39
 4 Year2003  -0.0683      1.52   -3.05       2.91
 5 Year2004   1.49        1.52   -1.49       4.46
 6 Year2005   1.86        1.52   -1.11       4.84
 7 Year2006   1.45        1.52   -1.53       4.42
 8 Year2007   0.618       1.52   -2.36       3.60
 9 Year2008   1.15        1.52   -1.83       4.12
10 Year2009   1.23        1.52   -1.74       4.21
# ℹ 14 more rows
…
See ?tidy.sdmTMB to extract these values as a data frame.

Confidence intervals of fixed effects

Hide/Show

fix_effects<- tidy(fit_m2, conf.int = TRUE)
fix_effects

# A tibble: 24 × 5
   term     estimate std.error conf.low conf.high
   <chr>       <dbl>     <dbl>    <dbl>     <dbl>
 1 Year2000    1.95      0.979   0.0326     3.87 
 2 Year2001   -0.360     0.959  -2.24       1.52 
 3 Year2002    0.361     0.986  -1.57       2.29 
 4 Year2003   -1.73      0.986  -3.66       0.202
 5 Year2004    1.07      0.947  -0.785      2.93 
 6 Year2005    0.906     1.03   -1.11       2.92 
 7 Year2006    0.750     1.03   -1.26       2.76 
 8 Year2007    0.119     1.00   -1.84       2.08 
 9 Year2008   -0.933     0.989  -2.87       1.01 
10 Year2009   -0.683     0.969  -2.58       1.22 
# ℹ 14 more rows
…
Dispersion parameter: 0.42
Matérn range: 145.67
Spatial SD: 0.33
Spatiotemporal IID SD: 0.86
ML criterion at convergence: 9758.662

See ?tidy.sdmTMB to extract these values as a data frame.

Confidence intervals of fixed effects

Hide/Show

tidy(fit_temp, conf.int = TRUE)

# A tibble: 24 × 5
   term     estimate std.error conf.low conf.high
   <chr>       <dbl>     <dbl>    <dbl>     <dbl>
 1 Year2000     13.5     0.386     12.7      14.2
 2 Year2001     14.9     0.369     14.1      15.6
 3 Year2002     14.4     0.387     13.7      15.2
 4 Year2003     18.4     0.376     17.6      19.1
 5 Year2004     13.7     0.374     12.9      14.4
 6 Year2005     14.4     0.410     13.6      15.2
 7 Year2006     14.5     0.412     13.7      15.3
 8 Year2007     14.6     0.396     13.9      15.4
 9 Year2008     14.7     0.387     13.9      15.4
10 Year2009     13.4     0.378     12.6      14.1
# ℹ 14 more rows
…
See ?tidy.sdmTMB to extract these values as a data frame.

Confidence intervals of fixed effects

Hide/Show

fix_effects<- tidy(fit_m3, conf.int = TRUE)
fix_effects

# A tibble: 24 × 5
   term     estimate std.error conf.low conf.high
   <chr>       <dbl>     <dbl>    <dbl>     <dbl>
 1 Year2000    1.98      0.992   0.0393    3.93  
 2 Year2001   -0.267     0.969  -2.17      1.63  
 3 Year2002    0.542     0.997  -1.41      2.50  
 4 Year2003   -1.89      1.00   -3.85      0.0831
 5 Year2004    1.14      0.959  -0.736     3.02  
 6 Year2005    1.11      1.04   -0.932     3.15  
 7 Year2006    0.979     1.04   -1.06      3.02  
 8 Year2007    0.240     1.01   -1.74      2.22  
 9 Year2008   -0.708     0.999  -2.67      1.25  
10 Year2009   -0.594     0.981  -2.52      1.33  
# ℹ 14 more rows
…
Dispersion parameter: 0.42
Matérn range: 145.67
Spatial SD: 0.33
Spatiotemporal IID SD: 0.86
ML criterion at convergence: 9758.662

See ?tidy.sdmTMB to extract these values as a data frame.

Hide/Show

tidy(fit_temp, conf.int = TRUE)

# A tibble: 24 × 5
   term     estimate std.error conf.low conf.high
   <chr>       <dbl>     <dbl>    <dbl>     <dbl>
 1 Year2000     13.5     0.386     12.7      14.2
 2 Year2001     14.9     0.369     14.1      15.6
 3 Year2002     14.4     0.387     13.7      15.2
 4 Year2003     18.4     0.376     17.6      19.1
 5 Year2004     13.7     0.374     12.9      14.4
 6 Year2005     14.4     0.410     13.6      15.2
 7 Year2006     14.5     0.412     13.7      15.3
 8 Year2007     14.6     0.396     13.9      15.4
 9 Year2008     14.7     0.387     13.9      15.4
10 Year2009     13.4     0.378     12.6      14.1
# ℹ 14 more rows
…
