sdmTMB Anchovy eggs Bay of biscay
…
See ?tidy.sdmTMB to extract these values as a data frame.

Confidence intervals of fixed effects

Hide/Show

fix_effects<- tidy(fit_m1, conf.int = TRUE)
fix_effects

# A tibble: 24 × 5
   term     estimate std.error conf.low conf.high
   <chr>       <dbl>     <dbl>    <dbl>     <dbl>
 1 Year2000  -0.637      0.882   -2.37       1.09
 2 Year2001   2.17       0.875    0.458      3.89
 3 Year2002   0.675      0.878   -1.05       2.40
 4 Year2003   0.665      0.878   -1.05       2.39
 5 Year2004  -0.0279     0.880   -1.75       1.70
 6 Year2005  -0.0851     0.881   -1.81       1.64
 7 Year2006  -0.257      0.881   -1.98       1.47
 8 Year2007   2.17       0.876    0.450      3.89
 9 Year2008   0.297      0.879   -1.42       2.02
10 Year2009   0.102      0.879   -1.62       1.83
# ℹ 14 more rows
…
See ?tidy.sdmTMB to extract these values as a data frame.

Confidence intervals of fixed effects

Hide/Show

fix_effects<- tidy(fit_m2, conf.int = TRUE)
fix_effects

# A tibble: 24 × 5
   term     estimate std.error conf.low conf.high
   <chr>       <dbl>     <dbl>    <dbl>     <dbl>
 1 Year2000   -5.80       2.01    -9.74    -1.87 
 2 Year2001   -2.50       1.89    -6.21     1.21 
 3 Year2002   -2.34       1.91    -6.07     1.40 
 4 Year2003   -0.962      1.85    -4.59     2.66 
 5 Year2004   -5.60       2.01    -9.54    -1.67 
 6 Year2005   -4.16       2.04    -8.16    -0.156
 7 Year2006   -4.82       2.03    -8.80    -0.843
 8 Year2007   -2.22       1.96    -6.06     1.62 
 9 Year2008   -4.80       2.00    -8.72    -0.886
10 Year2009   -5.94       2.00    -9.86    -2.01 
# ℹ 14 more rows
…
